[
  {
    "id": 0,
    "title": "The Da Vinci Code",
    "authorId": 0,
    "genreId": 0
  },
  {
    "id": 1,
    "title": "Programming for Dummies",
    "authorId": 1,
    "genreId": 1
  },
  {
    "id": 2,
    "title": "Inferno",
    "authorId": 0,
    "genreId": 0
  }
]
